%YAML 1.1
%TAG !u! tag:unity3d.com,2011:
--- !u!1045 &1
EditorBuildSettings:
  m_ObjectHideFlags: 0
  serializedVersion: 2
  m_Scenes:
  - enabled: 0
    path: 
    guid: 00000000000000000000000000000000
  - enabled: 0
    path: Assets/Scenes/HomeGrandmother.unity
    guid: b29127d381f8ce840989b24694f796f1
  - enabled: 1
    path: Assets/Scenes/Location001.unity
    guid: eb04b10b924818442a4d26cba1aa25f2
  m_configObjects: {}
